# An incomplete, invalid puzzle.
# Error likely to be discovered in row 4 with two 2s.
5 3 4 0 7 8 9 1 2
6 7 0 1 9 5 3 4 8
1 9 8 3 4 2 5 0 7
8 5 9 7 6 1 4 2 3
0 2 6 8 2 3 7 9 1
7 1 3 9 5 4 8 0 6
9 6 1 5 3 7 2 8 0
2 8 7 4 1 0 6 3 5
0 4 5 2 8 6 1 7 9
